[gd_scene load_steps=4 format=2]

[ext_resource path="res://src/GameObjects/Paddle.gd" type="Script" id=1]
[ext_resource path="res://assets/paddle.svg" type="Texture" id=2]

[sub_resource type="RectangleShape2D" id=1]
extents = Vector2( 60, 15 )

[node name="Paddle" type="KinematicBody2D"]
collision_mask = 10
script = ExtResource( 1 )

[node name="PaddleCollisionShape2D" type="CollisionShape2D" parent="."]
shape = SubResource( 1 )

[node name="Sprite" type="Sprite" parent="."]
texture = ExtResource( 2 )
